6, Green Goblin, 91, Bad, Male, 2, 175, USA, 4, 4, 3, 4, 3, 3, 
8, Thanos, 47, Bad, Male, 2, 447, Titan, 6, 7, 7, 6, 6, 4, 
9, Loki, 32, Bad, Male, 2, 238, Jotunheim, 5, 5, 7, 6, 6, 3, 
10, Doctor Doom, 19, Bad, Male, 2, 188, Latveria, 6, 4, 5, 6, 6, 4, 
