user1,movie_link,rating
http://utfpr.edu.br/CSB30/2019/1/DI1901alanonnoda,http://www.imdb.com/title/tt0167260/,4
http://utfpr.edu.br/CSB30/2019/1/DI1901alanonnoda,http://www.imdb.com/title/tt1375666/,4
http://utfpr.edu.br/CSB30/2019/1/DI1901alanonnoda,http://www.imdb.com/title/tt0245429/,5
http://utfpr.edu.br/CSB30/2019/1/DI1901alanonnoda,http://www.imdb.com/title/tt0088763/,5
http://utfpr.edu.br/CSB30/2019/1/DI1901alanonnoda,http://www.imdb.com/title/tt0910970/,4
http://utfpr.edu.br/CSB30/2019/1/DI1901alanonnoda,http://www.imdb.com/title/tt0119698/,5
http://utfpr.edu.br/CSB30/2019/1/DI1901alanonnoda,http://www.imdb.com/title/tt0096283/,4
http://utfpr.edu.br/CSB30/2019/1/DI1901alanonnoda,http://www.imdb.com/title/tt0347149/,5
http://utfpr.edu.br/CSB30/2019/1/DI1901alanonnoda,http://www.imdb.com/title/tt0382932/,4
http://utfpr.edu.br/CSB30/2019/1/DI1901alanonnoda,http://www.imdb.com/title/tt0087544/,4
http://utfpr.edu.br/CSB30/2019/1/DI1901andreolivei,http://www.imdb.com/title/tt0133093/,4
http://utfpr.edu.br/CSB30/2019/1/DI1901andreolivei,http://www.imdb.com/title/tt0109830/,4
http://utfpr.edu.br/CSB30/2019/1/DI1901andreolivei,http://www.imdb.com/title/tt1675434/,5
http://utfpr.edu.br/CSB30/2019/1/DI1901andreolivei,http://www.imdb.com/title/tt0848228/,4
http://utfpr.edu.br/CSB30/2019/1/DI1901andreolivei,http://www.imdb.com/title/tt0395169/,4
http://utfpr.edu.br/CSB30/2019/1/DI1901andreolivei,http://www.imdb.com/title/tt0246578/,4
http://utfpr.edu.br/CSB30/2019/1/DI1901andreolivei,http://www.imdb.com/title/tt1130884/,5
http://utfpr.edu.br/CSB30/2019/1/DI1901andreolivei,http://www.imdb.com/title/tt0107290/,3
http://utfpr.edu.br/CSB30/2019/1/DI1901brunapinheiro,http://www.imdb.com/title/tt0434409/,5
http://utfpr.edu.br/CSB30/2019/1/DI1901brunapinheiro,http://www.imdb.com/title/tt0325980/,5
http://utfpr.edu.br/CSB30/2019/1/DI1901brunapinheiro,http://www.imdb.com/title/tt0172495/,4
http://utfpr.edu.br/CSB30/2019/1/DI1901brunapinheiro,http://www.imdb.com/title/tt0076759/,1
http://utfpr.edu.br/CSB30/2019/1/DI1901brunapinheiro,http://www.imdb.com/title/tt0137523/,3
http://utfpr.edu.br/CSB30/2019/1/DI1901brunapinheiro,http://www.imdb.com/title/tt0112573/,3
http://utfpr.edu.br/CSB30/2019/1/DI1901brunapinheiro,http://www.imdb.com/title/tt0892769/,4
http://utfpr.edu.br/CSB30/2019/1/DI1901brunapinheiro,http://www.imdb.com/title/tt0209144/,3
http://utfpr.edu.br/CSB30/2019/1/DI1901brunapinheiro,http://www.imdb.com/title/tt1853728/,4
http://utfpr.edu.br/CSB30/2019/1/DI1901brunapinheiro,http://www.imdb.com/title/tt0114709/,1
http://utfpr.edu.br/CSB30/2019/1/DI1901carolinalima,http://www.imdb.com/title/tt0092005/,3
http://utfpr.edu.br/CSB30/2019/1/DI1901carolinalima,http://www.imdb.com/title/tt0108052/,5
http://utfpr.edu.br/CSB30/2019/1/DI1901carolinalima,http://www.imdb.com/title/tt0109830/,5
http://utfpr.edu.br/CSB30/2019/1/DI1901carolinalima,http://www.imdb.com/title/tt0110912/,5
http://utfpr.edu.br/CSB30/2019/1/DI1901carolinalima,http://www.imdb.com/title/tt0133093/,5
http://utfpr.edu.br/CSB30/2019/1/DI1901carolinalima,http://www.imdb.com/title/tt0137523/,5
http://utfpr.edu.br/CSB30/2019/1/DI1901carolinalima,http://www.imdb.com/title/tt0198781/,5
http://utfpr.edu.br/CSB30/2019/1/DI1901carolinalima,http://www.imdb.com/title/tt1375666/,5
http://utfpr.edu.br/CSB30/2019/1/DI1901carolinalima,http://www.imdb.com/title/tt1853728/,5
http://utfpr.edu.br/CSB30/2019/1/DI1901carolinalima,http://www.imdb.com/title/tt1130884/,5
http://utfpr.edu.br/CSB30/2019/1/DI1901carolinesilva,http://www.imdb.com/title/tt0080684/,4
http://utfpr.edu.br/CSB30/2019/1/DI1901carolinesilva,http://www.imdb.com/title/tt1375666/,3
http://utfpr.edu.br/CSB30/2019/1/DI1901carolinesilva,http://www.imdb.com/title/tt0435761/,5
http://utfpr.edu.br/CSB30/2019/1/DI1901carolinesilva,http://www.imdb.com/title/tt0910970/,4
http://utfpr.edu.br/CSB30/2019/1/DI1901carolinesilva,http://www.imdb.com/title/tt0110357/,5
http://utfpr.edu.br/CSB30/2019/1/DI1901carolinesilva,http://www.imdb.com/title/tt0086190/,5
http://utfpr.edu.br/CSB30/2019/1/DI1901carolinesilva,http://www.imdb.com/title/tt0114709/,5
http://utfpr.edu.br/CSB30/2019/1/DI1901carolinesilva,http://www.imdb.com/title/tt0848228/,3
http://utfpr.edu.br/CSB30/2019/1/DI1901carolinesilva,http://www.imdb.com/title/tt0892769/,5
http://utfpr.edu.br/CSB30/2019/1/DI1901carolinesilva,http://www.imdb.com/title/tt0246578/,3
http://utfpr.edu.br/CSB30/2019/1/DI1901carolinesilva,http://www.imdb.com/title/tt0454876/,3
http://utfpr.edu.br/CSB30/2019/1/DI1901carolinesilva,http://www.imdb.com/title/tt1201607/,5
http://utfpr.edu.br/CSB30/2019/1/DI1901carolinesilva,http://www.imdb.com/title/tt0198781/,5
http://utfpr.edu.br/CSB30/2019/1/DI1901danielvieira,http://www.imdb.com/title/tt0068646/,5
http://utfpr.edu.br/CSB30/2019/1/DI1901danielvieira,http://www.imdb.com/title/tt0110912/,5
http://utfpr.edu.br/CSB30/2019/1/DI1901danielvieira,http://www.imdb.com/title/tt0468569/,5
http://utfpr.edu.br/CSB30/2019/1/DI1901danielvieira,http://www.imdb.com/title/tt0137523/,5
http://utfpr.edu.br/CSB30/2019/1/DI1901danielvieira,http://www.imdb.com/title/tt0099685/,4
http://utfpr.edu.br/CSB30/2019/1/DI1901danielvieira,http://www.imdb.com/title/tt1375666/,4
http://utfpr.edu.br/CSB30/2019/1/DI1901danielvieira,http://www.imdb.com/title/tt0317248/,3
http://utfpr.edu.br/CSB30/2019/1/DI1901danielvieira,http://www.imdb.com/title/tt0047396/,5
http://utfpr.edu.br/CSB30/2019/1/DI1901eduardorocha,http://www.imdb.com/title/tt0110912/,4
http://utfpr.edu.br/CSB30/2019/1/DI1901eduardorocha,http://www.imdb.com/title/tt0137523/,5
http://utfpr.edu.br/CSB30/2019/1/DI1901eduardorocha,http://www.imdb.com/title/tt1375666/,5
http://utfpr.edu.br/CSB30/2019/1/DI1901eduardorocha,http://www.imdb.com/title/tt0109830/,4
http://utfpr.edu.br/CSB30/2019/1/DI1901eduardorocha,http://www.imdb.com/title/tt1345836/,4
http://utfpr.edu.br/CSB30/2019/1/DI1901eduardorocha,http://www.imdb.com/title/tt0325980/,3
http://utfpr.edu.br/CSB30/2019/1/DI1901eduardorocha,http://www.imdb.com/title/tt0848228/,5
http://utfpr.edu.br/CSB30/2019/1/DI1901feliperego,http://www.imdb.com/title/tt0137523/,3
http://utfpr.edu.br/CSB30/2019/1/DI1901feliperego,http://www.imdb.com/title/tt1375666/,4
http://utfpr.edu.br/CSB30/2019/1/DI1901feliperego,http://www.imdb.com/title/tt0133093/,5
http://utfpr.edu.br/CSB30/2019/1/DI1901feliperego,http://www.imdb.com/title/tt0103064/,5
http://utfpr.edu.br/CSB30/2019/1/DI1901feliperego,http://www.imdb.com/title/tt0078748/,5
http://utfpr.edu.br/CSB30/2019/1/DI1901feliperego,http://www.imdb.com/title/tt0245429/,3
http://utfpr.edu.br/CSB30/2019/1/DI1901feliperego,http://www.imdb.com/title/tt1345836/,4
http://utfpr.edu.br/CSB30/2019/1/DI1901feliperego,http://www.imdb.com/title/tt0211915/,5
http://utfpr.edu.br/CSB30/2019/1/DI1901gabrielrodrigues,http://www.imdb.com/title/tt0075148/,5
http://utfpr.edu.br/CSB30/2019/1/DI1901gabrielrodrigues,http://www.imdb.com/title/tt0109830/,4
http://utfpr.edu.br/CSB30/2019/1/DI1901gabrielrodrigues,http://www.imdb.com/title/tt0137523/,4
http://utfpr.edu.br/CSB30/2019/1/DI1901gabrielrodrigues,http://www.imdb.com/title/tt0266543/,5
http://utfpr.edu.br/CSB30/2019/1/DI1901gabrielrodrigues,http://www.imdb.com/title/tt0325980/,4
http://utfpr.edu.br/CSB30/2019/1/DI1901gabrielrodrigues,http://www.imdb.com/title/tt0434409/,3
http://utfpr.edu.br/CSB30/2019/1/DI1901gabrielrodrigues,http://www.imdb.com/title/tt1049413/,5
http://utfpr.edu.br/CSB30/2019/1/DI1901gabrielrodrigues,http://www.imdb.com/title/tt1201607/,5
http://utfpr.edu.br/CSB30/2019/1/DI1901gabrielrodrigues,http://www.imdb.com/title/tt0088763/,5
http://utfpr.edu.br/CSB30/2019/1/DI1901giovanniforastieri,http://www.imdb.com/title/tt0068646/,5
http://utfpr.edu.br/CSB30/2019/1/DI1901giovanniforastieri,http://www.imdb.com/title/tt0137523/,5
http://utfpr.edu.br/CSB30/2019/1/DI1901giovanniforastieri,http://www.imdb.com/title/tt0133093/,5
http://utfpr.edu.br/CSB30/2019/1/DI1901giovanniforastieri,http://www.imdb.com/title/tt0109830/,5
http://utfpr.edu.br/CSB30/2019/1/DI1901giovanniforastieri,http://www.imdb.com/title/tt1853728/,5
http://utfpr.edu.br/CSB30/2019/1/DI1901giovanniforastieri,http://www.imdb.com/title/tt0075314/,5
http://utfpr.edu.br/CSB30/2019/1/DI1901giovanniforastieri,http://www.imdb.com/title/tt0066921/,5
http://utfpr.edu.br/CSB30/2019/1/DI1901giovanniforastieri,http://www.imdb.com/title/tt0180093/,5
http://utfpr.edu.br/CSB30/2019/1/DI1901giovanniforastieri,http://www.imdb.com/title/tt0364569/,5
http://utfpr.edu.br/CSB30/2019/1/DI1901giovanniforastieri,http://www.imdb.com/title/tt0361748/,5
http://utfpr.edu.br/CSB30/2019/1/DI1901giovanniforastieri,http://www.imdb.com/title/tt0083658/,5
http://utfpr.edu.br/CSB30/2019/1/DI1901giovanniforastieri,http://www.imdb.com/title/tt0848228/,5
http://utfpr.edu.br/CSB30/2019/1/DI1901gregoryfaria,http://www.imdb.com/title/tt0114369/,4
http://utfpr.edu.br/CSB30/2019/1/DI1901gregoryfaria,http://www.imdb.com/title/tt0172495/,5
http://utfpr.edu.br/CSB30/2019/1/DI1901gregoryfaria,http://www.imdb.com/title/tt1345836/,4
http://utfpr.edu.br/CSB30/2019/1/DI1901gregoryfaria,http://www.imdb.com/title/tt1675434/,3
http://utfpr.edu.br/CSB30/2019/1/DI1901gregoryfaria,http://www.imdb.com/title/tt1853728/,4
http://utfpr.edu.br/CSB30/2019/1/DI1901gregoryfaria,http://www.imdb.com/title/tt0066921/,5
http://utfpr.edu.br/CSB30/2019/1/DI1901gregoryfaria,http://www.imdb.com/title/tt0361748/,5
http://utfpr.edu.br/CSB30/2019/1/DI1901ianqueros,http://www.imdb.com/title/tt0057012/,5
http://utfpr.edu.br/CSB30/2019/1/DI1901ianqueros,http://www.imdb.com/title/tt0071562/,5
http://utfpr.edu.br/CSB30/2019/1/DI1901ianqueros,http://www.imdb.com/title/tt0075314/,5
http://utfpr.edu.br/CSB30/2019/1/DI1901ianqueros,http://www.imdb.com/title/tt0088763/,4
http://utfpr.edu.br/CSB30/2019/1/DI1901ianqueros,http://www.imdb.com/title/tt0137523/,5
http://utfpr.edu.br/CSB30/2019/1/DI1901ianqueros,http://www.imdb.com/title/tt1375666/,4
http://utfpr.edu.br/CSB30/2019/1/DI1901ianqueros,http://www.imdb.com/title/tt0361748/,5
http://utfpr.edu.br/CSB30/2019/1/DI1901isisrodrigues,http://www.imdb.com/title/tt0245429/,5
http://utfpr.edu.br/CSB30/2019/1/DI1901isisrodrigues,http://www.imdb.com/title/tt0093779/,5
http://utfpr.edu.br/CSB30/2019/1/DI1901isisrodrigues,http://www.imdb.com/title/tt0910970/,5
http://utfpr.edu.br/CSB30/2019/1/DI1901isisrodrigues,http://www.imdb.com/title/tt0076759/,4
http://utfpr.edu.br/CSB30/2019/1/DI1901isisrodrigues,http://www.imdb.com/title/tt1853728/,4
http://utfpr.edu.br/CSB30/2019/1/DI1901isisrodrigues,http://www.imdb.com/title/tt0110357/,5
http://utfpr.edu.br/CSB30/2019/1/DI1901isisrodrigues,http://www.imdb.com/title/tt0361748/,4
http://utfpr.edu.br/CSB30/2019/1/DI1901isisrodrigues,http://www.imdb.com/title/tt0848228/,4
http://utfpr.edu.br/CSB30/2019/1/DI1901isisrodrigues,http://www.imdb.com/title/tt0892769/,5
http://utfpr.edu.br/CSB30/2019/1/DI1901isisrodrigues,http://www.imdb.com/title/tt0947798/,2
http://utfpr.edu.br/CSB30/2019/1/DI1901isisrodrigues,http://www.imdb.com/title/tt1659337/,1
http://utfpr.edu.br/CSB30/2019/1/DI1901ivanjunior,http://www.imdb.com/title/tt0068646/,5
http://utfpr.edu.br/CSB30/2019/1/DI1901ivanjunior,http://www.imdb.com/title/tt0071562/,5
http://utfpr.edu.br/CSB30/2019/1/DI1901ivanjunior,http://www.imdb.com/title/tt0060196/,4
http://utfpr.edu.br/CSB30/2019/1/DI1901ivanjunior,http://www.imdb.com/title/tt0110912/,5
http://utfpr.edu.br/CSB30/2019/1/DI1901ivanjunior,http://www.imdb.com/title/tt0137523/,5
http://utfpr.edu.br/CSB30/2019/1/DI1901ivanjunior,http://www.imdb.com/title/tt0099685/,4
http://utfpr.edu.br/CSB30/2019/1/DI1901ivanjunior,http://www.imdb.com/title/tt0064116/,5
http://utfpr.edu.br/CSB30/2019/1/DI1901ivanjunior,http://www.imdb.com/title/tt0054215/,5
http://utfpr.edu.br/CSB30/2019/1/DI1901ivanjunior,http://www.imdb.com/title/tt0209144/,5
http://utfpr.edu.br/CSB30/2019/1/DI1901joaofonsaka,http://www.imdb.com/title/tt0133093/,5
http://utfpr.edu.br/CSB30/2019/1/DI1901joaofonsaka,http://www.imdb.com/title/tt0080684/,5
http://utfpr.edu.br/CSB30/2019/1/DI1901joaofonsaka,http://www.imdb.com/title/tt0088763/,5
http://utfpr.edu.br/CSB30/2019/1/DI1901joaofonsaka,http://www.imdb.com/title/tt0086190/,5
http://utfpr.edu.br/CSB30/2019/1/DI1901joaofonsaka,http://www.imdb.com/title/tt0071853/,5
http://utfpr.edu.br/CSB30/2019/1/DI1901joaofonsaka,http://www.imdb.com/title/tt0083658/,5
http://utfpr.edu.br/CSB30/2019/1/DI1901joaofonsaka,http://www.imdb.com/title/tt0434409/,4
http://utfpr.edu.br/CSB30/2019/1/DI1901jordaosoviersovski,http://www.imdb.com/title/tt0080684/,4
http://utfpr.edu.br/CSB30/2019/1/DI1901jordaosoviersovski,http://www.imdb.com/title/tt1375666/,5
http://utfpr.edu.br/CSB30/2019/1/DI1901jordaosoviersovski,http://www.imdb.com/title/tt0076759/,4
http://utfpr.edu.br/CSB30/2019/1/DI1901jordaosoviersovski,http://www.imdb.com/title/tt0133093/,4
http://utfpr.edu.br/CSB30/2019/1/DI1901jordaosoviersovski,http://www.imdb.com/title/tt0082971/,3
http://utfpr.edu.br/CSB30/2019/1/DI1901jordaosoviersovski,http://www.imdb.com/title/tt0103064/,3
http://utfpr.edu.br/CSB30/2019/1/DI1901jordaosoviersovski,http://www.imdb.com/title/tt1345836/,3
http://utfpr.edu.br/CSB30/2019/1/DI1901jordaosoviersovski,http://www.imdb.com/title/tt0088763/,4
http://utfpr.edu.br/CSB30/2019/1/DI1901jordaosoviersovski,http://www.imdb.com/title/tt0086190/,5
http://utfpr.edu.br/CSB30/2019/1/DI1901jordaosoviersovski,http://www.imdb.com/title/tt0062622/,3
http://utfpr.edu.br/CSB30/2019/1/DI1901jordaosoviersovski,http://www.imdb.com/title/tt0372784/,3
http://utfpr.edu.br/CSB30/2019/1/DI1901jordaosoviersovski,http://www.imdb.com/title/tt0848228/,5
http://utfpr.edu.br/CSB30/2019/1/DI1901jordaosoviersovski,http://www.imdb.com/title/tt0266697/,5
http://utfpr.edu.br/CSB30/2019/1/DI1901jordaosoviersovski,http://www.imdb.com/title/tt0892769/,3
http://utfpr.edu.br/CSB30/2019/1/DI1901jorgesilva,http://www.imdb.com/title/tt0211915/,5
http://utfpr.edu.br/CSB30/2019/1/DI1901jorgesilva,http://www.imdb.com/title/tt0110912/,4
http://utfpr.edu.br/CSB30/2019/1/DI1901jorgesilva,http://www.imdb.com/title/tt0076759/,5
http://utfpr.edu.br/CSB30/2019/1/DI1901jorgesilva,http://www.imdb.com/title/tt0066921/,4
http://utfpr.edu.br/CSB30/2019/1/DI1901jorgesilva,http://www.imdb.com/title/tt0062622/,5
http://utfpr.edu.br/CSB30/2019/1/DI1901jorgesilva,http://www.imdb.com/title/tt0363163/,4
http://utfpr.edu.br/CSB30/2019/1/DI1901jorgesilva,http://www.imdb.com/title/tt0091763/,5
http://utfpr.edu.br/CSB30/2019/1/DI1901lucassilva,http://www.imdb.com/title/tt0080684/,4
http://utfpr.edu.br/CSB30/2019/1/DI1901lucassilva,http://www.imdb.com/title/tt0910970/,4
http://utfpr.edu.br/CSB30/2019/1/DI1901lucassilva,http://www.imdb.com/title/tt0372784/,4
http://utfpr.edu.br/CSB30/2019/1/DI1901lucassilva,http://www.imdb.com/title/tt1136608/,3
http://utfpr.edu.br/CSB30/2019/1/DI1901lucassilva,http://www.imdb.com/title/tt0382932/,4
http://utfpr.edu.br/CSB30/2019/1/DI1901lucassilva,http://www.imdb.com/title/tt1201607/,5
http://utfpr.edu.br/CSB30/2019/1/DI1901lucassilva,http://www.imdb.com/title/tt0796366/,4
http://utfpr.edu.br/CSB30/2019/1/DI1901lucasribeiro,http://www.imdb.com/title/tt0068646/,5
http://utfpr.edu.br/CSB30/2019/1/DI1901lucasribeiro,http://www.imdb.com/title/tt0071562/,5
http://utfpr.edu.br/CSB30/2019/1/DI1901lucasribeiro,http://www.imdb.com/title/tt0468569/,5
http://utfpr.edu.br/CSB30/2019/1/DI1901lucasribeiro,http://www.imdb.com/title/tt0137523/,4
http://utfpr.edu.br/CSB30/2019/1/DI1901lucasribeiro,http://www.imdb.com/title/tt0109830/,5
http://utfpr.edu.br/CSB30/2019/1/DI1901lucasribeiro,http://www.imdb.com/title/tt0133093/,3
http://utfpr.edu.br/CSB30/2019/1/DI1901lucasribeiro,http://www.imdb.com/title/tt1345836/,5
http://utfpr.edu.br/CSB30/2019/1/DI1901matheusturatti,http://www.imdb.com/title/tt0111161/,4
http://utfpr.edu.br/CSB30/2019/1/DI1901matheusturatti,http://www.imdb.com/title/tt0110912/,4
http://utfpr.edu.br/CSB30/2019/1/DI1901matheusturatti,http://www.imdb.com/title/tt0137523/,4
http://utfpr.edu.br/CSB30/2019/1/DI1901matheusturatti,http://www.imdb.com/title/tt1375666/,4
http://utfpr.edu.br/CSB30/2019/1/DI1901matheusturatti,http://www.imdb.com/title/tt0109830/,4
http://utfpr.edu.br/CSB30/2019/1/DI1901matheusturatti,http://www.imdb.com/title/tt0317248/,5
http://utfpr.edu.br/CSB30/2019/1/DI1901matheusturatti,http://www.imdb.com/title/tt0114814/,3
http://utfpr.edu.br/CSB30/2019/1/DI1901matheusturatti,http://www.imdb.com/title/tt0120586/,3
http://utfpr.edu.br/CSB30/2019/1/DI1901pedrocittolin,http://www.imdb.com/title/tt1375666/,5
http://utfpr.edu.br/CSB30/2019/1/DI1901pedrocittolin,http://www.imdb.com/title/tt0107290/,4
http://utfpr.edu.br/CSB30/2019/1/DI1901pedrocittolin,http://www.imdb.com/title/tt0947798/,5
http://utfpr.edu.br/CSB30/2019/1/DI1901pedrocittolin,http://www.imdb.com/title/tt0892769/,5
http://utfpr.edu.br/CSB30/2019/1/DI1901pedrocittolin,http://www.imdb.com/title/tt0848228/,4
http://utfpr.edu.br/CSB30/2019/1/DI1901pedrocittolin,http://www.imdb.com/title/tt0110357/,5
http://utfpr.edu.br/CSB30/2019/1/DI1901pedrocittolin,http://www.imdb.com/title/tt0910970/,4
http://utfpr.edu.br/CSB30/2019/1/DI1901pedrocittolin,http://www.imdb.com/title/tt0088763/,5
http://utfpr.edu.br/CSB30/2019/1/DI1901pedrocittolin,http://www.imdb.com/title/tt0133093/,4
http://utfpr.edu.br/CSB30/2019/1/DI1901pedrocittolin,http://www.imdb.com/title/tt0454876/,2
http://utfpr.edu.br/CSB30/2019/1/DI1901pedrocittolin,http://www.imdb.com/title/tt0266543/,5
http://utfpr.edu.br/CSB30/2019/1/DI1901pedrocittolin,http://www.imdb.com/title/tt0434409/,4
http://utfpr.edu.br/CSB30/2019/1/DI1901pedrocittolin,http://www.imdb.com/title/tt0076759/,3
http://utfpr.edu.br/CSB30/2019/1/DI1901pedrowoiciechovski,http://www.imdb.com/title/tt0027977/,5
http://utfpr.edu.br/CSB30/2019/1/DI1901pedrowoiciechovski,http://www.imdb.com/title/tt0068646/,5
http://utfpr.edu.br/CSB30/2019/1/DI1901pedrowoiciechovski,http://www.imdb.com/title/tt0080684/,5
http://utfpr.edu.br/CSB30/2019/1/DI1901pedrowoiciechovski,http://www.imdb.com/title/tt0082971/,4
http://utfpr.edu.br/CSB30/2019/1/DI1901pedrowoiciechovski,http://www.imdb.com/title/tt0110912/,5
http://utfpr.edu.br/CSB30/2019/1/DI1901pedrowoiciechovski,http://www.imdb.com/title/tt0167260/,5
http://utfpr.edu.br/CSB30/2019/1/DI1901pedrowoiciechovski,http://www.imdb.com/title/tt0071853/,4
http://utfpr.edu.br/CSB30/2019/1/DI1901rodrigosil,http://www.imdb.com/title/tt0110912/,4
http://utfpr.edu.br/CSB30/2019/1/DI1901rodrigosil,http://www.imdb.com/title/tt0137523/,4
http://utfpr.edu.br/CSB30/2019/1/DI1901rodrigosil,http://www.imdb.com/title/tt1375666/,5
http://utfpr.edu.br/CSB30/2019/1/DI1901rodrigosil,http://www.imdb.com/title/tt0133093/,3
http://utfpr.edu.br/CSB30/2019/1/DI1901rodrigosil,http://www.imdb.com/title/tt0114369/,5
http://utfpr.edu.br/CSB30/2019/1/DI1901rodrigosil,http://www.imdb.com/title/tt1853728/,5
http://utfpr.edu.br/CSB30/2019/1/DI1901rodrigosil,http://www.imdb.com/title/tt1345836/,5
http://utfpr.edu.br/CSB30/2019/1/DI1901rodrigosil,http://www.imdb.com/title/tt0208092/,4
http://utfpr.edu.br/CSB30/2019/1/DI1901steventunnicliff,http://www.imdb.com/title/tt0325980/,5
http://utfpr.edu.br/CSB30/2019/1/DI1901steventunnicliff,http://www.imdb.com/title/tt0454876/,4
http://utfpr.edu.br/CSB30/2019/1/DI1901steventunnicliff,http://www.imdb.com/title/tt1201607/,5
http://utfpr.edu.br/CSB30/2019/1/DI1901steventunnicliff,http://www.imdb.com/title/tt1205489/,5
http://utfpr.edu.br/CSB30/2019/1/DI1901steventunnicliff,http://www.imdb.com/title/tt0133093/,5
http://utfpr.edu.br/CSB30/2019/1/DI1901steventunnicliff,http://www.imdb.com/title/tt0245429/,5
http://utfpr.edu.br/CSB30/2019/1/DI1901steventunnicliff,http://www.imdb.com/title/tt0435761/,5
http://utfpr.edu.br/CSB30/2019/1/DI1901steventunnicliff,http://www.imdb.com/title/tt0910970/,5
http://utfpr.edu.br/CSB30/2019/1/DI1901thiagobubniak,http://www.imdb.com/title/tt0133093/,4
http://utfpr.edu.br/CSB30/2019/1/DI1901thiagobubniak,http://www.imdb.com/title/tt0071853/,4
http://utfpr.edu.br/CSB30/2019/1/DI1901thiagobubniak,http://www.imdb.com/title/tt0361748/,4
http://utfpr.edu.br/CSB30/2019/1/DI1901thiagobubniak,http://www.imdb.com/title/tt0434409/,4
http://utfpr.edu.br/CSB30/2019/1/DI1901thiagobubniak,http://www.imdb.com/title/tt0903624/,5
http://utfpr.edu.br/CSB30/2019/1/DI1901thiagobubniak,http://www.imdb.com/title/tt0325980/,4
http://utfpr.edu.br/CSB30/2019/1/DI1901thiagobubniak,http://www.imdb.com/title/tt1201607/,5
http://utfpr.edu.br/CSB30/2019/1/DI1901thiagobubniak,http://www.imdb.com/title/tt0167260/,5
http://utfpr.edu.br/CSB30/2019/1/DI1901thiagobubniak,http://www.imdb.com/title/tt0137523/,3
http://utfpr.edu.br/CSB30/2019/1/DI1901thiagobubniak,http://www.imdb.com/title/tt1345836/,4
http://utfpr.edu.br/CSB30/2019/1/DI1901thiagobubniak,http://www.imdb.com/title/tt0114709/,5
http://utfpr.edu.br/CSB30/2019/1/DI1901thiagobubniak,http://www.imdb.com/title/tt0848228/,5
http://utfpr.edu.br/CSB30/2019/1/DI1901thiagobubniak,http://www.imdb.com/title/tt0198781/,5
http://utfpr.edu.br/CSB30/2019/1/DI1901thiagobubniak,http://www.imdb.com/title/tt1136608/,3
http://utfpr.edu.br/CSB30/2019/1/DI1901thiagobubniak,http://www.imdb.com/title/tt0066921/,1
http://utfpr.edu.br/CSB30/2019/1/DI1901vickiearanha,http://www.imdb.com/title/tt0110912/,5
http://utfpr.edu.br/CSB30/2019/1/DI1901vickiearanha,http://www.imdb.com/title/tt0137523/,5
http://utfpr.edu.br/CSB30/2019/1/DI1901vickiearanha,http://www.imdb.com/title/tt0133093/,5
http://utfpr.edu.br/CSB30/2019/1/DI1901victorsilva,http://www.imdb.com/title/tt0468569/,5
http://utfpr.edu.br/CSB30/2019/1/DI1901victorsilva,http://www.imdb.com/title/tt0167260/,4
http://utfpr.edu.br/CSB30/2019/1/DI1901victorsilva,http://www.imdb.com/title/tt0080684/,3
http://utfpr.edu.br/CSB30/2019/1/DI1901victorsilva,http://www.imdb.com/title/tt1375666/,3
http://utfpr.edu.br/CSB30/2019/1/DI1901victorsilva,http://www.imdb.com/title/tt0120815/,4
http://utfpr.edu.br/CSB30/2019/1/DI1901victorsilva,http://www.imdb.com/title/tt1853728/,4
http://utfpr.edu.br/CSB30/2019/1/DI1901victorsilva,http://www.imdb.com/title/tt1675434/,3
http://utfpr.edu.br/CSB30/2019/1/DI1901victorsilva,http://www.imdb.com/title/tt0435761/,2
http://utfpr.edu.br/CSB30/2019/1/DI1901wainejunior,http://www.imdb.com/title/tt0102926/,5
http://utfpr.edu.br/CSB30/2019/1/DI1901wainejunior,http://www.imdb.com/title/tt0108052/,5
http://utfpr.edu.br/CSB30/2019/1/DI1901wainejunior,http://www.imdb.com/title/tt0114369/,5
http://utfpr.edu.br/CSB30/2019/1/DI1901wainejunior,http://www.imdb.com/title/tt0116282/,5
http://utfpr.edu.br/CSB30/2019/1/DI1901wainejunior,http://www.imdb.com/title/tt0338013/,5
http://utfpr.edu.br/CSB30/2019/1/DI1901wainejunior,http://www.imdb.com/title/tt0435761/,5
http://utfpr.edu.br/CSB30/2019/1/DI1901wainejunior,http://www.imdb.com/title/tt1375666/,5
http://utfpr.edu.br/CSB30/2019/1/DI1901wainejunior,http://www.imdb.com/title/tt0758758/,5
